<svg width="234" height="33" viewBox="0 0 234 33" xmlns="http://www.w3.org/2000/svg" xmlns:xlink="http://www.w3.org/1999/xlink">
    <defs>
        <path d="M7.954.102c0 .824-.208 3.49-.33 4.265H.031v3.548h6.753L.294 25.334l6.253.19s6.2-15.696 6.589-17.609h11.499v14.47h-6.06v3.152h12.047V4.367H13.757c.072-.774.22-3.441.22-4.265H7.954z" id="msa2mfsf5a"/>
        <path d="M.114.124v3.461h3.94l-2.46 21.631h10.547l.004-3.097H7.879l1.535-11.415.412-3.588v-.001l.406-3.524h.005v-.006h21.156V.125H.113zm11.831 6.974v3.572l-.054.022h11.111V25.24h9.308v-3.104h-3.212V9.69l-.018-2.592H11.945zm.235 8.093.014.02c.336.47 2.776 5.047 2.886 5.511l4.62-1.113-3.035-6.982-4.485 2.564z" id="8dtkfm0j0c"/>
    </defs>
    <g fill="none" fill-rule="evenodd">
        <path fill="#00BDFF" d="m40.853 0-5.447 16.275L29.96 0H19.065l-5.447 16.275-2.724-8.137H0L8.17 32.55h10.895l5.447-16.276 5.447 16.276h10.894L51.748 0zM79.04 16.275H68.024l2.754 8.347h11.018z"/>
        <path fill="#005EDD" d="m40.897 0 10.85 32.551h21.701l-2.712-8.138h-10.85L51.748 0z"/>
        <g transform="translate(133.549 3.012)">
            <mask id="uouwy04j3b" fill="#fff">
                <use xlink:href="#msa2mfsf5a"/>
            </mask>
            <path fill="#00BDFF" mask="url(#uouwy04j3b)" d="M-1.688 27.256h34.029V-1.617H-1.688z"/>
        </g>
        <g transform="translate(96 3.333)">
            <mask id="awardautqd" fill="#fff">
                <use xlink:href="#8dtkfm0j0c"/>
            </mask>
            <path fill="#00BDFF" mask="url(#awardautqd)" d="M-1.605 26.958H34.03V-1.594H-1.605z"/>
        </g>
        <path fill="#005EDD" d="M172.98 3.114h5.422l-1.91 7.777h1.222v17.864h-5.151V14.902h-2.845zM191.701 10.297h7.865V6.472h-7.778V3.114h-5.596v3.358h-7.79v3.825h7.97V21.35h-2.093l.743-9.956h-5.017l-1.503 17.361h5.21l.307-3.561 2.353.052v3.46l4.99.05v-3.51l.002-.052h2.585l.307 3.561h5.21l-1.502-17.36h-5.018l.743 9.955h-2.092v-6.424zM216.189 3.114v1.255h-11.777V7.88h3.046l-1.054 1.756V12.9h27.478l-1.688-4.767h-4.213l.502 1.505h-16.81l1.254-1.756h20.955V4.369h-12.173V3.114zM212.676 18.168h14.302v-1.004h-14.302v1.004zm0 3.763h14.302v-1.004h-14.302v1.004zm-5.52-8.257v15.031h5.52v-4.014h14.302v1.004h-5.018l.068 3.01h10.342v-15.03h-25.213z"/>
    </g>
</svg>
