<svg width="30" height="30" viewBox="0 0 30 30" xmlns="http://www.w3.org/2000/svg">
    <g fill="none" fill-rule="evenodd">
        <path d="M0 0h30v30H0z"/>
        <path stroke="#666" stroke-width="2.4" stroke-linecap="round" stroke-linejoin="round" d="m7.03 6.843 16.314 16.314M23.345 6.843 7.03 23.157"/>
    </g>
</svg>
